{
    "name": "bg",
    "nodes": [
        {
            "children": [],
            "frame_index": 0,
            "name": "cloud1.png",
            "node_path": "cloud1.png",
            "offset": [
                -960,
                540
            ],
            "opacity": 1.0,
            "pivot_offset": [
                0.0,
                0.0
            ],
            "position": [
                -2,
                12
            ],
            "resource_path": "sprites/cloud1.png",
            "rotation": 0.0,
            "scale": [
                1.0,
                1.0
            ],
            "tiles_x": 1,
            "tiles_y": 1,
            "type": "SPRITE",
            "z": 0
        },
        {
            "children": [],
            "frame_index": 0,
            "name": "cloud2.png",
            "node_path": "cloud2.png",
            "offset": [
                -960,
                540
            ],
            "opacity": 1.0,
            "pivot_offset": [
                0.0,
                0.0
            ],
            "position": [
                -27,
                62
            ],
            "resource_path": "sprites/cloud2.png",
            "rotation": 0.0,
            "scale": [
                1.0,
                1.0
            ],
            "tiles_x": 1,
            "tiles_y": 1,
            "type": "SPRITE",
            "z": -1
        },
        {
            "children": [],
            "frame_index": 0,
            "name": "\u0421\u043b\u043e\u0439 23 \u0421\u0432\u0435\u0434\u0435\u043d\u043e.png",
            "node_path": "\u0421\u043b\u043e\u0439 23 \u0421\u0432\u0435\u0434\u0435\u043d\u043e.png",
            "offset": [
                -960,
                540
            ],
            "opacity": 1.0,
            "pivot_offset": [
                0.0,
                0.0
            ],
            "position": [
                679,
                74
            ],
            "resource_path": "sprites/\u0421\u043b\u043e\u0439 23 \u0421\u0432\u0435\u0434\u0435\u043d\u043e.png",
            "rotation": 0.0,
            "scale": [
                1.0,
                1.0
            ],
            "tiles_x": 1,
            "tiles_y": 1,
            "type": "SPRITE",
            "z": -2
        },
        {
            "children": [],
            "frame_index": 0,
            "name": "Group 1 \u0421\u0432\u0435\u0434\u0435\u043d\u043e.png",
            "node_path": "Group 1 \u0421\u0432\u0435\u0434\u0435\u043d\u043e.png",
            "offset": [
                -960,
                540
            ],
            "opacity": 1.0,
            "pivot_offset": [
                0.0,
                0.0
            ],
            "position": [
                -131,
                -106
            ],
            "resource_path": "sprites/Group 1 \u0421\u0432\u0435\u0434\u0435\u043d\u043e.png",
            "rotation": 0.0,
            "scale": [
                1.0,
                1.0
            ],
            "tiles_x": 1,
            "tiles_y": 1,
            "type": "SPRITE",
            "z": -3
        }
    ]
}