{
    "name": "008-2",
    "nodes": [
        {
            "children": [],
            "frame_index": 0,
            "name": "\u0431\u0440\u043e\u0432\u044c-1.png",
            "node_path": "\u0431\u0440\u043e\u0432\u044c-1.png",
            "offset": [
                -960,
                542
            ],
            "opacity": 1.0,
            "pivot_offset": [
                0.0,
                0.0
            ],
            "position": [
                928,
                472
            ],
            "resource_path": "sprites/\u0431\u0440\u043e\u0432\u044c-1.png",
            "rotation": 0.0,
            "scale": [
                1.0,
                1.0
            ],
            "tiles_x": 1,
            "tiles_y": 1,
            "type": "SPRITE",
            "z": 0
        },
        {
            "children": [],
            "frame_index": 0,
            "name": "\u0431\u0440\u043e\u0432\u044c-2.png",
            "node_path": "\u0431\u0440\u043e\u0432\u044c-2.png",
            "offset": [
                -960,
                542
            ],
            "opacity": 1.0,
            "pivot_offset": [
                0.0,
                0.0
            ],
            "position": [
                838,
                480
            ],
            "resource_path": "sprites/\u0431\u0440\u043e\u0432\u044c-2.png",
            "rotation": 0.0,
            "scale": [
                1.0,
                1.0
            ],
            "tiles_x": 1,
            "tiles_y": 1,
            "type": "SPRITE",
            "z": -1
        },
        {
            "children": [],
            "frame_index": 0,
            "name": "\u041f\u0435\u043f\u043f\u0435\u0440.png",
            "node_path": "\u041f\u0435\u043f\u043f\u0435\u0440.png",
            "offset": [
                -960,
                542
            ],
            "opacity": 1.0,
            "pivot_offset": [
                0.0,
                0.0
            ],
            "position": [
                537,
                63
            ],
            "resource_path": "sprites/\u041f\u0435\u043f\u043f\u0435\u0440.png",
            "rotation": 0.0,
            "scale": [
                1.0,
                1.0
            ],
            "tiles_x": 1,
            "tiles_y": 1,
            "type": "SPRITE",
            "z": -2
        },
        {
            "children": [],
            "frame_index": 0,
            "name": "\u0444\u043e\u043d.png",
            "node_path": "\u0444\u043e\u043d.png",
            "offset": [
                -960,
                542
            ],
            "opacity": 1.0,
            "pivot_offset": [
                0.0,
                0.0
            ],
            "position": [
                0,
                0
            ],
            "resource_path": "sprites/\u0444\u043e\u043d.png",
            "rotation": 0.0,
            "scale": [
                1.0,
                1.0
            ],
            "tiles_x": 1,
            "tiles_y": 1,
            "type": "SPRITE",
            "z": -3
        }
    ]
}