{
    "name": "007",
    "nodes": [
        {
            "children": [],
            "frame_index": 0,
            "name": "\u0421\u043b\u043e\u0439 3.png",
            "node_path": "\u0421\u043b\u043e\u0439 3.png",
            "offset": [
                -1280,
                720
            ],
            "opacity": 1.0,
            "pivot_offset": [
                0.0,
                0.0
            ],
            "position": [
                230,
                74
            ],
            "resource_path": "sprites/\u0421\u043b\u043e\u0439 3.png",
            "rotation": 0.0,
            "scale": [
                1.0,
                1.0
            ],
            "tiles_x": 1,
            "tiles_y": 1,
            "type": "SPRITE",
            "z": 0
        },
        {
            "children": [],
            "frame_index": 0,
            "name": "\u041a\u043e\u043f\u0438\u044f  \u0421\u043b\u043e\u0439 10 #2.png",
            "node_path": "\u041a\u043e\u043f\u0438\u044f  \u0421\u043b\u043e\u0439 10 #2.png",
            "offset": [
                -1280,
                720
            ],
            "opacity": 1.0,
            "pivot_offset": [
                0.0,
                0.0
            ],
            "position": [
                1937,
                890
            ],
            "resource_path": "sprites/\u041a\u043e\u043f\u0438\u044f  \u0421\u043b\u043e\u0439 10 #2.png",
            "rotation": 0.0,
            "scale": [
                1.0,
                1.0
            ],
            "tiles_x": 1,
            "tiles_y": 1,
            "type": "SPRITE",
            "z": -1
        },
        {
            "children": [],
            "frame_index": 0,
            "name": "\u0421\u043b\u043e\u0439 10.png",
            "node_path": "\u0421\u043b\u043e\u0439 10.png",
            "offset": [
                -1280,
                720
            ],
            "opacity": 1.0,
            "pivot_offset": [
                0.0,
                0.0
            ],
            "position": [
                1920,
                815
            ],
            "resource_path": "sprites/\u0421\u043b\u043e\u0439 10.png",
            "rotation": 0.0,
            "scale": [
                1.0,
                1.0
            ],
            "tiles_x": 1,
            "tiles_y": 1,
            "type": "SPRITE",
            "z": -2
        },
        {
            "children": [],
            "frame_index": 0,
            "name": "\u0421\u043b\u043e\u0439 7 (\u0432\u0441\u0442\u0430\u0432\u043b\u0435\u043d\u043e).png",
            "node_path": "\u0421\u043b\u043e\u0439 7 (\u0432\u0441\u0442\u0430\u0432\u043b\u0435\u043d\u043e).png",
            "offset": [
                -1280,
                720
            ],
            "opacity": 1.0,
            "pivot_offset": [
                0.0,
                0.0
            ],
            "position": [
                1351,
                263
            ],
            "resource_path": "sprites/\u0421\u043b\u043e\u0439 7 (\u0432\u0441\u0442\u0430\u0432\u043b\u0435\u043d\u043e).png",
            "rotation": 0.0,
            "scale": [
                1.0,
                1.0
            ],
            "tiles_x": 1,
            "tiles_y": 1,
            "type": "SPRITE",
            "z": -3
        },
        {
            "children": [],
            "frame_index": 0,
            "name": "\u0421\u043b\u043e\u0439 11.png",
            "node_path": "\u0421\u043b\u043e\u0439 11.png",
            "offset": [
                -1280,
                720
            ],
            "opacity": 1.0,
            "pivot_offset": [
                0.0,
                0.0
            ],
            "position": [
                1206,
                107
            ],
            "resource_path": "sprites/\u0421\u043b\u043e\u0439 11.png",
            "rotation": 0.0,
            "scale": [
                1.0,
                1.0
            ],
            "tiles_x": 1,
            "tiles_y": 1,
            "type": "SPRITE",
            "z": -4
        },
        {
            "children": [],
            "frame_index": 0,
            "name": "\u0421\u043b\u043e\u0439 12 (\u0432\u0441\u0442\u0430\u0432\u043b\u0435\u043d\u043e).png",
            "node_path": "\u0421\u043b\u043e\u0439 12 (\u0432\u0441\u0442\u0430\u0432\u043b\u0435\u043d\u043e).png",
            "offset": [
                -1280,
                720
            ],
            "opacity": 1.0,
            "pivot_offset": [
                0.0,
                0.0
            ],
            "position": [
                1675,
                639
            ],
            "resource_path": "sprites/\u0421\u043b\u043e\u0439 12 (\u0432\u0441\u0442\u0430\u0432\u043b\u0435\u043d\u043e).png",
            "rotation": 0.0,
            "scale": [
                1.0,
                1.0
            ],
            "tiles_x": 1,
            "tiles_y": 1,
            "type": "SPRITE",
            "z": -5
        },
        {
            "children": [],
            "frame_index": 0,
            "name": "\u0421\u043b\u043e\u0439 6.png",
            "node_path": "\u0421\u043b\u043e\u0439 6.png",
            "offset": [
                -1280,
                720
            ],
            "opacity": 1.0,
            "pivot_offset": [
                0.0,
                0.0
            ],
            "position": [
                0,
                0
            ],
            "resource_path": "sprites/\u0421\u043b\u043e\u0439 6.png",
            "rotation": 0.0,
            "scale": [
                1.0,
                1.0
            ],
            "tiles_x": 1,
            "tiles_y": 1,
            "type": "SPRITE",
            "z": -6
        }
    ]
}