{
    "name": "Opening",
    "nodes": [
        {
            "children": [],
            "frame_index": 0,
            "name": "right cloud.png",
            "node_path": "right cloud.png",
            "offset": [
                -1920,
                1920
            ],
            "opacity": 1.0,
            "pivot_offset": [
                0.0,
                0.0
            ],
            "position": [
                -796,
                -258
            ],
            "resource_path": "sprites/right cloud.png",
            "rotation": 0.0,
            "scale": [
                1.0,
                1.0
            ],
            "tiles_x": 1,
            "tiles_y": 1,
            "type": "SPRITE",
            "z": 0
        },
        {
            "children": [],
            "frame_index": 0,
            "name": "Left cloud.png",
            "node_path": "Left cloud.png",
            "offset": [
                -1920,
                1920
            ],
            "opacity": 1.0,
            "pivot_offset": [
                0.0,
                0.0
            ],
            "position": [
                -581,
                -295
            ],
            "resource_path": "sprites/Left cloud.png",
            "rotation": 0.0,
            "scale": [
                1.0,
                1.0
            ],
            "tiles_x": 1,
            "tiles_y": 1,
            "type": "SPRITE",
            "z": -1
        },
        {
            "children": [],
            "frame_index": 0,
            "name": "\u0421\u043b\u043e\u0439 48.png",
            "node_path": "\u0421\u043b\u043e\u0439 48.png",
            "offset": [
                -1920,
                1920
            ],
            "opacity": 0.7490196078431373,
            "pivot_offset": [
                0.0,
                0.0
            ],
            "position": [
                -467,
                1436
            ],
            "resource_path": "sprites/\u0421\u043b\u043e\u0439 48.png",
            "rotation": 0.0,
            "scale": [
                1.0,
                1.0
            ],
            "tiles_x": 1,
            "tiles_y": 1,
            "type": "SPRITE",
            "z": -2
        },
        {
            "children": [],
            "frame_index": 0,
            "name": "E03P00.kra.png",
            "node_path": "E03P00.kra.png",
            "offset": [
                -1920,
                1920
            ],
            "opacity": 1.0,
            "pivot_offset": [
                0.0,
                0.0
            ],
            "position": [
                706,
                782
            ],
            "resource_path": "sprites/E03P00.kra.png",
            "rotation": 0.0,
            "scale": [
                1.0,
                1.0
            ],
            "tiles_x": 1,
            "tiles_y": 1,
            "type": "SPRITE",
            "z": -3
        },
        {
            "children": [],
            "frame_index": 0,
            "name": "CLOUDS.png",
            "node_path": "CLOUDS.png",
            "offset": [
                -1920,
                1920
            ],
            "opacity": 1.0,
            "pivot_offset": [
                0.0,
                0.0
            ],
            "position": [
                823,
                0
            ],
            "resource_path": "sprites/CLOUDS.png",
            "rotation": 0.0,
            "scale": [
                1.0,
                1.0
            ],
            "tiles_x": 1,
            "tiles_y": 1,
            "type": "SPRITE",
            "z": -4
        },
        {
            "children": [],
            "frame_index": 0,
            "name": "background.png",
            "node_path": "background.png",
            "offset": [
                -1920,
                1920
            ],
            "opacity": 1.0,
            "pivot_offset": [
                0.0,
                0.0
            ],
            "position": [
                -919,
                -129
            ],
            "resource_path": "sprites/background.png",
            "rotation": 0.0,
            "scale": [
                1.0,
                1.0
            ],
            "tiles_x": 1,
            "tiles_y": 1,
            "type": "SPRITE",
            "z": -5
        }
    ]
}