{
    "name": "pepper",
    "nodes": [
        {
            "children": [],
            "frame_index": 0,
            "name": "hat1.png",
            "node_path": "hat1.png",
            "offset": [
                -1250,
                1500
            ],
            "opacity": 1.0,
            "pivot_offset": [
                0.0,
                0.0
            ],
            "position": [
                446,
                201
            ],
            "resource_path": "sprites/hat1.png",
            "rotation": 0.0,
            "scale": [
                1.0,
                1.0
            ],
            "tiles_x": 1,
            "tiles_y": 1,
            "type": "SPRITE",
            "z": 0
        },
        {
            "children": [],
            "frame_index": 0,
            "name": "hair.png",
            "node_path": "hair.png",
            "offset": [
                -1250,
                1500
            ],
            "opacity": 1.0,
            "pivot_offset": [
                0.0,
                0.0
            ],
            "position": [
                701,
                837
            ],
            "resource_path": "sprites/hair.png",
            "rotation": 0.0,
            "scale": [
                1.0,
                1.0
            ],
            "tiles_x": 1,
            "tiles_y": 1,
            "type": "SPRITE",
            "z": -1
        },
        {
            "children": [],
            "frame_index": 0,
            "name": "6.png",
            "node_path": "6.png",
            "offset": [
                -1250,
                1500
            ],
            "opacity": 1.0,
            "pivot_offset": [
                0.0,
                0.0
            ],
            "position": [
                1012,
                1295
            ],
            "resource_path": "sprites/6.png",
            "rotation": 0.0,
            "scale": [
                1.0,
                1.0
            ],
            "tiles_x": 1,
            "tiles_y": 1,
            "type": "SPRITE",
            "z": -2
        },
        {
            "children": [],
            "frame_index": 0,
            "name": "5.png",
            "node_path": "5.png",
            "offset": [
                -1250,
                1500
            ],
            "opacity": 1.0,
            "pivot_offset": [
                0.0,
                0.0
            ],
            "position": [
                1012,
                1297
            ],
            "resource_path": "sprites/5.png",
            "rotation": 0.0,
            "scale": [
                1.0,
                1.0
            ],
            "tiles_x": 1,
            "tiles_y": 1,
            "type": "SPRITE",
            "z": -3
        },
        {
            "children": [],
            "frame_index": 0,
            "name": "4.png",
            "node_path": "4.png",
            "offset": [
                -1250,
                1500
            ],
            "opacity": 1.0,
            "pivot_offset": [
                0.0,
                0.0
            ],
            "position": [
                992,
                1282
            ],
            "resource_path": "sprites/4.png",
            "rotation": 0.0,
            "scale": [
                1.0,
                1.0
            ],
            "tiles_x": 1,
            "tiles_y": 1,
            "type": "SPRITE",
            "z": -4
        },
        {
            "children": [],
            "frame_index": 0,
            "name": "3.png",
            "node_path": "3.png",
            "offset": [
                -1250,
                1500
            ],
            "opacity": 1.0,
            "pivot_offset": [
                0.0,
                0.0
            ],
            "position": [
                986,
                1282
            ],
            "resource_path": "sprites/3.png",
            "rotation": 0.0,
            "scale": [
                1.0,
                1.0
            ],
            "tiles_x": 1,
            "tiles_y": 1,
            "type": "SPRITE",
            "z": -5
        },
        {
            "children": [],
            "frame_index": 0,
            "name": "2.png",
            "node_path": "2.png",
            "offset": [
                -1250,
                1500
            ],
            "opacity": 1.0,
            "pivot_offset": [
                0.0,
                0.0
            ],
            "position": [
                994,
                1292
            ],
            "resource_path": "sprites/2.png",
            "rotation": 0.0,
            "scale": [
                1.0,
                1.0
            ],
            "tiles_x": 1,
            "tiles_y": 1,
            "type": "SPRITE",
            "z": -6
        },
        {
            "children": [],
            "frame_index": 0,
            "name": "1.png",
            "node_path": "1.png",
            "offset": [
                -1250,
                1500
            ],
            "opacity": 1.0,
            "pivot_offset": [
                0.0,
                0.0
            ],
            "position": [
                994,
                1291
            ],
            "resource_path": "sprites/1.png",
            "rotation": 0.0,
            "scale": [
                1.0,
                1.0
            ],
            "tiles_x": 1,
            "tiles_y": 1,
            "type": "SPRITE",
            "z": -7
        },
        {
            "children": [],
            "frame_index": 0,
            "name": "eyebrow.png",
            "node_path": "eyebrow.png",
            "offset": [
                -1250,
                1500
            ],
            "opacity": 1.0,
            "pivot_offset": [
                0.0,
                0.0
            ],
            "position": [
                882,
                1073
            ],
            "resource_path": "sprites/eyebrow.png",
            "rotation": 0.0,
            "scale": [
                1.0,
                1.0
            ],
            "tiles_x": 1,
            "tiles_y": 1,
            "type": "SPRITE",
            "z": -8
        },
        {
            "children": [],
            "frame_index": 0,
            "name": "opened.png",
            "node_path": "opened.png",
            "offset": [
                -1250,
                1500
            ],
            "opacity": 1.0,
            "pivot_offset": [
                0.0,
                0.0
            ],
            "position": [
                889,
                1051
            ],
            "resource_path": "sprites/opened.png",
            "rotation": 0.0,
            "scale": [
                1.0,
                1.0
            ],
            "tiles_x": 1,
            "tiles_y": 1,
            "type": "SPRITE",
            "z": -9
        },
        {
            "children": [],
            "frame_index": 0,
            "name": "hclosed.png",
            "node_path": "hclosed.png",
            "offset": [
                -1250,
                1500
            ],
            "opacity": 1.0,
            "pivot_offset": [
                0.0,
                0.0
            ],
            "position": [
                851,
                1096
            ],
            "resource_path": "sprites/hclosed.png",
            "rotation": 0.0,
            "scale": [
                1.0,
                1.0
            ],
            "tiles_x": 1,
            "tiles_y": 1,
            "type": "SPRITE",
            "z": -10
        },
        {
            "children": [],
            "frame_index": 0,
            "name": "closed.png",
            "node_path": "closed.png",
            "offset": [
                -1250,
                1500
            ],
            "opacity": 1.0,
            "pivot_offset": [
                0.0,
                0.0
            ],
            "position": [
                878,
                1100
            ],
            "resource_path": "sprites/closed.png",
            "rotation": 0.0,
            "scale": [
                1.0,
                1.0
            ],
            "tiles_x": 1,
            "tiles_y": 1,
            "type": "SPRITE",
            "z": -11
        },
        {
            "children": [],
            "frame_index": 0,
            "name": "head.png",
            "node_path": "head.png",
            "offset": [
                -1250,
                1500
            ],
            "opacity": 1.0,
            "pivot_offset": [
                0.0,
                0.0
            ],
            "position": [
                828,
                803
            ],
            "resource_path": "sprites/head.png",
            "rotation": 0.0,
            "scale": [
                1.0,
                1.0
            ],
            "tiles_x": 1,
            "tiles_y": 1,
            "type": "SPRITE",
            "z": -12
        },
        {
            "children": [],
            "frame_index": 0,
            "name": "hat2.png",
            "node_path": "hat2.png",
            "offset": [
                -1250,
                1500
            ],
            "opacity": 1.0,
            "pivot_offset": [
                0.0,
                0.0
            ],
            "position": [
                444,
                596
            ],
            "resource_path": "sprites/hat2.png",
            "rotation": 0.0,
            "scale": [
                1.0,
                1.0
            ],
            "tiles_x": 1,
            "tiles_y": 1,
            "type": "SPRITE",
            "z": -13
        },
        {
            "children": [],
            "frame_index": 0,
            "name": "paper.png",
            "node_path": "paper.png",
            "offset": [
                -1250,
                1500
            ],
            "opacity": 1.0,
            "pivot_offset": [
                0.0,
                0.0
            ],
            "position": [
                597,
                1399
            ],
            "resource_path": "sprites/paper.png",
            "rotation": 0.0,
            "scale": [
                1.0,
                1.0
            ],
            "tiles_x": 1,
            "tiles_y": 1,
            "type": "SPRITE",
            "z": -14
        },
        {
            "children": [],
            "frame_index": 0,
            "name": "hand1.png",
            "node_path": "hand1.png",
            "offset": [
                -1250,
                1500
            ],
            "opacity": 1.0,
            "pivot_offset": [
                0.0,
                0.0
            ],
            "position": [
                543,
                1249
            ],
            "resource_path": "sprites/hand1.png",
            "rotation": 0.0,
            "scale": [
                1.0,
                1.0
            ],
            "tiles_x": 1,
            "tiles_y": 1,
            "type": "SPRITE",
            "z": -15
        },
        {
            "children": [],
            "frame_index": 0,
            "name": "bag.png",
            "node_path": "bag.png",
            "offset": [
                -1250,
                1500
            ],
            "opacity": 1.0,
            "pivot_offset": [
                0.0,
                0.0
            ],
            "position": [
                931,
                941
            ],
            "resource_path": "sprites/bag.png",
            "rotation": 0.0,
            "scale": [
                1.0,
                1.0
            ],
            "tiles_x": 1,
            "tiles_y": 1,
            "type": "SPRITE",
            "z": -16
        },
        {
            "children": [],
            "frame_index": 0,
            "name": "body.png",
            "node_path": "body.png",
            "offset": [
                -1250,
                1500
            ],
            "opacity": 1.0,
            "pivot_offset": [
                0.0,
                0.0
            ],
            "position": [
                681,
                1221
            ],
            "resource_path": "sprites/body.png",
            "rotation": 0.0,
            "scale": [
                1.0,
                1.0
            ],
            "tiles_x": 1,
            "tiles_y": 1,
            "type": "SPRITE",
            "z": -17
        },
        {
            "children": [],
            "frame_index": 0,
            "name": "hand2.png",
            "node_path": "hand2.png",
            "offset": [
                -1250,
                1500
            ],
            "opacity": 1.0,
            "pivot_offset": [
                0.0,
                0.0
            ],
            "position": [
                641,
                1256
            ],
            "resource_path": "sprites/hand2.png",
            "rotation": 0.0,
            "scale": [
                1.0,
                1.0
            ],
            "tiles_x": 1,
            "tiles_y": 1,
            "type": "SPRITE",
            "z": -18
        },
        {
            "children": [],
            "frame_index": 0,
            "name": "cloak.png",
            "node_path": "cloak.png",
            "offset": [
                -1250,
                1500
            ],
            "opacity": 1.0,
            "pivot_offset": [
                0.0,
                0.0
            ],
            "position": [
                307,
                455
            ],
            "resource_path": "sprites/cloak.png",
            "rotation": 0.0,
            "scale": [
                1.0,
                1.0
            ],
            "tiles_x": 1,
            "tiles_y": 1,
            "type": "SPRITE",
            "z": -19
        }
    ]
}