{
    "name": "017-lips",
    "nodes": [
        {
            "children": [],
            "frame_index": 0,
            "name": "A.png",
            "node_path": "A.png",
            "offset": [
                -1280,
                720
            ],
            "opacity": 1.0,
            "pivot_offset": [
                0.0,
                0.0
            ],
            "position": [
                1666,
                970
            ],
            "resource_path": "sprites/A.png",
            "rotation": 0.0,
            "scale": [
                1.0,
                1.0
            ],
            "tiles_x": 1,
            "tiles_y": 1,
            "type": "SPRITE",
            "z": 0
        },
        {
            "children": [],
            "frame_index": 0,
            "name": "O.png",
            "node_path": "O.png",
            "offset": [
                -1280,
                720
            ],
            "opacity": 1.0,
            "pivot_offset": [
                0.0,
                0.0
            ],
            "position": [
                1667,
                969
            ],
            "resource_path": "sprites/O.png",
            "rotation": 0.0,
            "scale": [
                1.0,
                1.0
            ],
            "tiles_x": 1,
            "tiles_y": 1,
            "type": "SPRITE",
            "z": -1
        },
        {
            "children": [],
            "frame_index": 0,
            "name": "E.png",
            "node_path": "E.png",
            "offset": [
                -1280,
                720
            ],
            "opacity": 1.0,
            "pivot_offset": [
                0.0,
                0.0
            ],
            "position": [
                1666,
                972
            ],
            "resource_path": "sprites/E.png",
            "rotation": 0.0,
            "scale": [
                1.0,
                1.0
            ],
            "tiles_x": 1,
            "tiles_y": 1,
            "type": "SPRITE",
            "z": -2
        },
        {
            "children": [],
            "frame_index": 0,
            "name": "rest.png",
            "node_path": "rest.png",
            "offset": [
                -1280,
                720
            ],
            "opacity": 1.0,
            "pivot_offset": [
                0.0,
                0.0
            ],
            "position": [
                1664,
                974
            ],
            "resource_path": "sprites/rest.png",
            "rotation": 0.0,
            "scale": [
                1.0,
                1.0
            ],
            "tiles_x": 1,
            "tiles_y": 1,
            "type": "SPRITE",
            "z": -3
        },
        {
            "children": [],
            "frame_index": 0,
            "name": "rest2.png",
            "node_path": "rest2.png",
            "offset": [
                -1280,
                720
            ],
            "opacity": 1.0,
            "pivot_offset": [
                0.0,
                0.0
            ],
            "position": [
                1664,
                959
            ],
            "resource_path": "sprites/rest2.png",
            "rotation": 0.0,
            "scale": [
                1.0,
                1.0
            ],
            "tiles_x": 1,
            "tiles_y": 1,
            "type": "SPRITE",
            "z": -4
        },
        {
            "children": [],
            "frame_index": 0,
            "name": "eyes.png",
            "node_path": "eyes.png",
            "offset": [
                -1280,
                720
            ],
            "opacity": 1.0,
            "pivot_offset": [
                0.0,
                0.0
            ],
            "position": [
                1617,
                881
            ],
            "resource_path": "sprites/eyes.png",
            "rotation": 0.0,
            "scale": [
                1.0,
                1.0
            ],
            "tiles_x": 1,
            "tiles_y": 1,
            "type": "SPRITE",
            "z": -5
        },
        {
            "children": [],
            "frame_index": 0,
            "name": "eyes1.png",
            "node_path": "eyes1.png",
            "offset": [
                -1280,
                720
            ],
            "opacity": 1.0,
            "pivot_offset": [
                0.0,
                0.0
            ],
            "position": [
                1617,
                863
            ],
            "resource_path": "sprites/eyes1.png",
            "rotation": 0.0,
            "scale": [
                1.0,
                1.0
            ],
            "tiles_x": 1,
            "tiles_y": 1,
            "type": "SPRITE",
            "z": -6
        }
    ]
}