{
    "name": "export",
    "nodes": [
        {
            "children": [],
            "frame_index": 0,
            "name": "rest.png",
            "node_path": "rest.png",
            "offset": [
                -988,
                718
            ],
            "opacity": 1.0,
            "pivot_offset": [
                0.0,
                0.0
            ],
            "position": [
                970,
                791
            ],
            "resource_path": "sprites/rest.png",
            "rotation": 0.0,
            "scale": [
                1.0,
                1.0
            ],
            "tiles_x": 1,
            "tiles_y": 1,
            "type": "SPRITE",
            "z": 0
        },
        {
            "children": [],
            "frame_index": 0,
            "name": "etc.png",
            "node_path": "etc.png",
            "offset": [
                -988,
                718
            ],
            "opacity": 1.0,
            "pivot_offset": [
                0.0,
                0.0
            ],
            "position": [
                965,
                812
            ],
            "resource_path": "sprites/etc.png",
            "rotation": 0.0,
            "scale": [
                1.0,
                1.0
            ],
            "tiles_x": 1,
            "tiles_y": 1,
            "type": "SPRITE",
            "z": -1
        },
        {
            "children": [],
            "frame_index": 0,
            "name": "e.png",
            "node_path": "e.png",
            "offset": [
                -988,
                718
            ],
            "opacity": 1.0,
            "pivot_offset": [
                0.0,
                0.0
            ],
            "position": [
                962,
                823
            ],
            "resource_path": "sprites/e.png",
            "rotation": 0.0,
            "scale": [
                1.0,
                1.0
            ],
            "tiles_x": 1,
            "tiles_y": 1,
            "type": "SPRITE",
            "z": -2
        },
        {
            "children": [],
            "frame_index": 0,
            "name": "o.png",
            "node_path": "o.png",
            "offset": [
                -988,
                718
            ],
            "opacity": 1.0,
            "pivot_offset": [
                0.0,
                0.0
            ],
            "position": [
                963,
                828
            ],
            "resource_path": "sprites/o.png",
            "rotation": 0.0,
            "scale": [
                1.0,
                1.0
            ],
            "tiles_x": 1,
            "tiles_y": 1,
            "type": "SPRITE",
            "z": -3
        },
        {
            "children": [],
            "frame_index": 0,
            "name": "A.png",
            "node_path": "A.png",
            "offset": [
                -988,
                718
            ],
            "opacity": 1.0,
            "pivot_offset": [
                0.0,
                0.0
            ],
            "position": [
                961,
                825
            ],
            "resource_path": "sprites/A.png",
            "rotation": 0.0,
            "scale": [
                1.0,
                1.0
            ],
            "tiles_x": 1,
            "tiles_y": 1,
            "type": "SPRITE",
            "z": -4
        },
        {
            "children": [],
            "frame_index": 0,
            "name": "\u0444\u043e\u043d.png",
            "node_path": "\u0444\u043e\u043d.png",
            "offset": [
                -988,
                718
            ],
            "opacity": 1.0,
            "pivot_offset": [
                0.0,
                0.0
            ],
            "position": [
                0,
                0
            ],
            "resource_path": "sprites/\u0444\u043e\u043d.png",
            "rotation": 0.0,
            "scale": [
                1.0,
                1.0
            ],
            "tiles_x": 1,
            "tiles_y": 1,
            "type": "SPRITE",
            "z": -5
        }
    ]
}