{
    "name": "pepperbig",
    "nodes": [
        {
            "children": [],
            "frame_index": 0,
            "name": "golova.png",
            "node_path": "golova.png",
            "offset": [
                -1920,
                1080
            ],
            "opacity": 1.0,
            "pivot_offset": [
                0.0,
                0.0
            ],
            "position": [
                1446,
                463
            ],
            "resource_path": "sprites/golova.png",
            "rotation": 0.0,
            "scale": [
                1.0,
                1.0
            ],
            "tiles_x": 1,
            "tiles_y": 1,
            "type": "SPRITE",
            "z": 0
        },
        {
            "children": [],
            "frame_index": 0,
            "name": "metla.png",
            "node_path": "metla.png",
            "offset": [
                -1920,
                1080
            ],
            "opacity": 1.0,
            "pivot_offset": [
                0.0,
                0.0
            ],
            "position": [
                1367,
                1094
            ],
            "resource_path": "sprites/metla.png",
            "rotation": 0.0,
            "scale": [
                1.0,
                1.0
            ],
            "tiles_x": 1,
            "tiles_y": 1,
            "type": "SPRITE",
            "z": -1
        },
        {
            "children": [],
            "frame_index": 0,
            "name": "plash.png",
            "node_path": "plash.png",
            "offset": [
                -1920,
                1080
            ],
            "opacity": 1.0,
            "pivot_offset": [
                0.0,
                0.0
            ],
            "position": [
                1367,
                1094
            ],
            "resource_path": "sprites/plash.png",
            "rotation": 0.0,
            "scale": [
                1.0,
                1.0
            ],
            "tiles_x": 1,
            "tiles_y": 1,
            "type": "SPRITE",
            "z": -2
        }
    ]
}